{
    "name": "BlinnPhong Transparent",
    "category": "material",
    "transparent": true,
    "pass": [
        {
            "type": "main",
            "desc": {
                "shader": {
                    "vertex": "assets/shaders/blinnphong.vert",
                    "fragment": "assets/shaders/blinnphongTransparent.frag"
                },
                "pipeline": {
                    "blending": {
                        "enable": true,
                        "colorBlendOp": "add",
                        "srcColorBlendFactor": "srcAlpha",
                        "dstColorBlendFactor": "oneMinusSrcAlpha",
                        "alphaBlendOp": "add",
                        "srcAlphaBlendFactor": "one",
                        "dstAlphaBlendFactor": "zero"
                    },
                    "polygonMode": "fill",
                    "cullMode": "back"
                }
            }
        }
    ],
    "defaults": {
       "diffuseColor": [1, 1, 1, 1],
       "opacity": 1.0,
        "emissiveMultiplier": 1,
        "uvTiling": [
            1.0,
            1.0
        ]
    }
}