{
    "name": "Fullscreen single color texture",
    "category": "fx",
    "pass": [
        {
            "type": "main",
            "desc": {
                "shader": {
                    "vertex": "assets/shaders/fullscreen.vert",
                    "fragment": "assets/shaders/textureR.frag"
                },
                "pipeline": {
                    "cullMode": "none",
                    "depth": {
                        "test": false,
                        "write": false
                    }
                }
            }
        }
    ]
}