{
    "name": "Test material",
    "category": "material",
    "pass": [
        {
            "type": [
                "main"
            ],
            "desc": {
                "shader": {
                    "vertex": "assets/shaders/custom/testMaterial.vert",
                    "fragment": "assets/shaders/custom/testMaterial.frag"
                },
                "pipeline": {
                    "polygonMode": "fill",
                    "cullMode": "back"
                }
            }
        },
        {
            "type": [
                "depth",
                "shadow"
            ],
            "desc": {
                "shader": {
                    "vertex": "assets/shaders/custom/testMaterial.vert"
                },
                "pipeline": {
                    "polygonMode": "fill",
                    "cullMode": "back"
                }
            }
        },
        {
            "type": [
                "shadowCube"
            ],
            "desc": {
                "shader": {
                    "vertex": "assets/shaders/custom/testMaterial.vert",
                    "fragment": "assets/shaders/shadowmapPoint.frag"
                },
                "pipeline": {
                    "polygonMode": "fill",
                    "cullMode": "back"
                }
            }
        }
    ],
    "defaults": {
        "thisCouldBeSomeColor": {
            "x": 1.0,
            "z": 0.5
        },
        "param": 1,
        "inTex": "assets/textures/bricks2.jpg",
        "displace": 0.5
    }
}