{
    "name": "Wireframe",
    "category": "material",
    "pass": [
        {
            "type": "main",
            "desc": {
                "shader": {
                    "vertex": "assets/shaders/test.vert",
                    "fragment": "assets/shaders/color.frag"
                },
                "pipeline": {
                    "polygonMode": "line",
                    "cullMode": "none"
                }
            }
        }
    ],
    "defaults": {
        "color": [
            1,
            0,
            0,
            1
        ]
    }
}