{
    "name": "Volumetric Point light",
    "category": "fx",
    "pass": [
        {
            "type": "main",
            "desc": {
                "shader": {
                    "vertex": "assets/shaders/volumetric/volumetricPoint.vert",
                    "fragment": "assets/shaders/volumetric/volumetricPoint.frag"
                },
                "pipeline": {
                   "blending": {
                        "enable": true,
                        "colorBlendOp": "add",
                        "srcColorBlendFactor": "srcAlpha",
                        "dstColorBlendFactor": "one",
                        "alphaBlendOp": "add",
                        "srcAlphaBlendFactor": "zero",
                        "dstAlphaBlendFactor": "one"
                    },
                    "polygonMode": "fill",
                    "cullMode": "back"
                }
            }
        }
    ]
}