{
    "name": "Fog",
    "category": "fx",
    "pass": [
        {
            "type": "postprocess",
            "desc": {
                "shader": {
                    "vertex": "assets/shaders/fullscreen.vert",
                    "fragment": "assets/shaders/fx/fog.frag"
                },
                "pipeline": {
                    "polygonMode": "fill",
                    "cullMode": "back"
                }
            }
        }
    ]
}