{
    "name": "Gizmo wireframe dir",
    "category": "editor",
    "pass": [
        {
            "type": "main",
            "desc": {
                "shader": {
                    "vertex": "assets/shaders/gui/gizmoDir.vert",
                    "fragment": "assets/shaders/gui/gizmo.frag"
                },
                "pipeline": {
                    "polygonMode": "line",
                    "cullMode": "none",
                    "topology": "lineList",
                    "depth": {
                        "test": true,
                        "write": false
                    }
                }
            }
        }
    ],
    "defaults": {
        "color": [
            1,
            0,
            0,
            1
        ]
    }
}